set terminal pngcairo
set output "a2av-ena-edr.png"
set title "Alltoallv, 128 ranks, OMPI3"
set xlabel "Message size (bytes)"
set ylabel "Time (s)"
set key left
set xrange [1:1e6]
set yrange [10:1e6]
set logscale xy
plot "-" u 1:5:3:4 w errorlines title "EDR IB 16 core/node algo 1", "-" u 1:5:3:4 w errorlines title "EDR IB 16 core/node algo 2",  '-' u 1:5:3:4 w errorlines title "EC2 ENA c5n.9x algo 1",  '-' u 1:5:3:4 w errorlines title "EC2 ENA c5n.9x algo 2"
            0         1000        48.59        69.33        59.84
            1         1000        46.63        68.54        58.58
            2         1000        46.47        68.25        58.46
            4         1000        46.98        68.16        58.27
            8         1000        46.52        67.92        58.24
           16         1000        56.17        79.06        68.42
           32         1000        48.78        69.26        59.90
           64         1000        55.98        74.49        66.05
          128         1000        70.27        93.27        82.08
          256         1000        89.93       118.42       104.01
          512         1000       100.47       184.22       141.20
         1024         1000       121.66       340.28       236.80
         2048         1000       476.69       506.50       489.42
         4096         1000      1152.94      1178.31      1163.85
         8192         1000      1982.31      2002.52      1991.39
        16384         1000      3619.98      3645.17      3632.62
        32768         1000      6659.82      7001.33      6951.87
        65536          509     18955.51     19264.09     19115.16
       131072          274     35411.22     36769.20     36284.48
       262144          139     70215.57     71963.64     71347.20
       524288           71    140780.26    143212.63    142432.11
e
            0         1000        49.89        68.84        60.03
            1         1000        46.79        68.38        58.98
            2         1000        46.95        68.28        58.84
            4         1000        47.14        68.40        59.01
            8         1000        47.24        68.16        58.72
           16         1000        55.37        76.67        67.05
           32         1000        48.99        69.34        60.38
           64         1000        55.97        74.57        66.25
          128         1000        70.59        92.44        82.43
          256         1000        91.12       118.20       104.63
          512         1000       102.03       184.28       141.55
         1024         1000       119.85       335.68       232.54
         2048         1000       473.38       505.83       487.91
         4096         1000      1159.84      1185.48      1170.66
         8192         1000      1991.12      2010.31      1999.83
        16384         1000      3641.50      3668.24      3654.95
        32768         1000      6631.83      7032.09      6976.51
        65536          521     18965.22     19204.79     19083.54
       131072          275     35673.91     36748.69     36323.53
       262144          139     70258.34     71837.17     71242.75
       524288           71    140253.31    142438.62    141694.61
e
            0         1000         1.45         2.78         1.79
            1         1000       640.55      1930.79      1455.52
            2         1000       612.10      2060.73      1440.19
            4         1000       648.69      1972.48      1446.68
            8         1000       630.14      1973.74      1438.17
           16         1000       610.90      1918.06      1443.50
           32         1000       587.81      1904.61      1442.04
           64         1000       605.66      2001.91      1512.22
          128         1000       608.15      2147.56      1512.56
          256         1000       811.69      2124.16      1665.86
          512         1000       697.97      1945.47      1476.18
         1024         1000       816.68      2135.08      1625.10
         2048         1000       893.45      2501.85      1812.39
         4096         1000      1177.97      2898.50      2195.29
         8192         1000      1802.67      4493.70      3078.45
        16384          670      3459.55      8316.19      5806.73
        32768           78      8676.24     67003.20     16448.09
        65536           78     25220.29    103998.96     46956.13
       131072           78     41557.70     89839.22     59692.01
       262144           26     91045.73    213944.57    148887.27
       524288           24    220410.25    351703.71    288894.39
e
            0         1000         1.46         2.62         1.84
            1         1000       829.99      2218.93      1633.24
            2         1000       642.04      2031.73      1446.15
            4         1000       595.34      1873.78      1430.76
            8         1000       600.93      2077.31      1439.30
           16         1000       622.96      1920.12      1450.93
           32         1000       607.39      2046.53      1471.11
           64         1000       631.73      1987.17      1507.92
          128         1000       595.79      2008.41      1542.03
          256         1000       616.16      2118.88      1463.28
          512         1000       660.10      2080.15      1499.53
         1024         1000       735.10      2168.60      1653.60
         2048         1000       894.73      2400.04      1817.65
         4096         1000      1217.64      2996.29      2243.18
         8192         1000      1681.09      4308.00      3039.66
        16384         1000      3608.38     13379.45      6176.91
        32768           60      8958.59     86341.47     17652.50
        65536           60     24759.68     79043.65     47574.43
       131072           60     40010.95     81254.54     58390.59
       262144           27     83734.04    201896.32    140996.46
       524288           14    196950.72    356499.52    286873.59
e

