Nodes,Cores,Wallclock(s),%MPI,%I/O,LB,CE,PE
1,18,241,18,0,95.2,85.9,81.8
1,18,240,18,0,94.8,86.2,81.8
1,18,241,18,0,95.1,86.2,82.0
1,18,240,18,0,95.1,86.3,82.1
1,18,258,20,0,94.8,84.4,80.0
1,18,239,18,0,95.2,86.1,81.9
1,18,239,18,0,95.2,86.1,81.9
2,36,140,29,2,93.7,74.8,70.1
2,36,140,29,2,93.7,74.8,70.1
2,36,142,30,2,93.7,74.7,70.0
2,36,140,29,2,94.9,74.4,70.6
2,36,141,29,2,94.7,74.1,70.2
2,36,141,29,2,93.6,75.0,70.2
2,36,167,38,2,94.0,65.2,61.3
3,54,111,37,3,94.4,66.0,62.3
3,54,111,37,3,94.4,66.0,62.3
3,54,112,38,3,95.1,65.6,62.4
3,54,112,38,3,94.9,65.5,62.2
3,54,113,38,3,93.4,66.0,61.6
3,54,112,38,3,94.0,66.1,62.1
3,54,144,50,2,94.6,52.7,49.8
4,72,116,54,4,86.9,53.1,46.1
4,72,107,49,4,88.5,56.8,50.3
4,72,120,55,4,88.5,50.3,44.5
4,72,110,51,4,86.3,56.7,48.9
4,72,125,57,3,88.3,48.2,42.5
4,72,125,57,3,88.3,48.2,42.5
4,72,137,59,3,89.3,44.9,40.1
5,90,112,58,5,82.4,50.1,41.2
5,90,113,59,5,81.0,50.3,40.8
5,90,112,58,5,79.3,51.8,41.1
5,90,110,58,5,82.9,50.7,42.0
5,90,143,67,3,81.1,40.6,32.9
5,90,145,67,3,82.7,39.3,32.5
5,90,145,67,3,81.4,40.1,32.7
5,90,143,67,3,84.6,38.9,32.9
5,90,144,67,3,85.1,38.7,32.9
5,90,108,57,5,84.9,50.5,42.8
5,90,108,57,5,84.9,50.5,42.8
6,108,95.41,59,4,92.4,43.9,40.5
6,108,95.41,59,4,92.4,43.9,40.5
6,108,95.15,59,4,92.5,43.7,40.4
6,108,94.41,59,4,91.9,44.5,40.9
6,108,94.70,59,4,93.1,43.9,40.9
